全国学力テスト模擬データ
…
ここでは生徒データ（Excel:3126KB）つまり中学生（中3）のデータを使う。まずはダウンロードして，Excelで開いてみよう。このような，1行目に変数名，2行目以降に値が並び，セル結合をしていない素直な長方形データは，Rで簡単に扱える。

昔なら，いったんCSVファイルに変換してからRで読み込むところだが，CSVファイルの文字コードによってはRで文字化けが起こったりするので，初心者向きでなかった。今は，RでExcelファイルをそのまま読み込むほうが簡単である。

Excelファイルを読み込む操作は，Rstudioならマウスで簡単にできる。右上のペインで「Import Dataset」→「From Excel…」をクリックする（初回使用時にはライブラリのインストールが始まり，しばらく待たされる）。「Browse…」ボタンを押し，ダウンロードしたファイル 1404609_2_1.xlsx を探し，「Open」を押す。データのプレビュー画面が現れる。左下の「Import Options:」で，「Name:」のところ（データの名前）がファイル名から自動生成された「X1404609_2_1」になっている。このままでもよいが，後でわかりやすいように，ここではこれを「seito」に直し，念のためマウスで別の入力欄をクリックする（あるいは Tab キーまたは Enter キーを打つ）。プレビューが再生成されたことを確認してから，右下の「Import」を押す。

同じことを素のRで行うには，次のように打ち込む：

library(readxl) # これがエラーになるなら install.packages("readxl") する
seito = read_excel("1404609_2_1.xlsx") # Excelファイルの保存場所に注意

これで seito という変数に生徒データが読み込まれた。

seito  # 中を見てみる
# A tibble: 2,000 x 430
   実施年 地域規模 解答用紙番号  性別 生徒質問紙種別 正答数_国Ａ 正答数_国Ｂ
    <dbl>    <dbl>        <dbl> <dbl> <lgl>                <dbl>       <dbl>
 1   2015        3            1     2 NA                      27           7
 2   2015        1            2     2 NA                      26           4
 3   2015        1            3     2 NA                      27           7
 4   2015        2            4     1 NA                      22           7
 5   2015        1            5     2 NA                      27           8
 6   2015        2            6     2 NA                      27           3
 7   2015        4            7     2 NA                      19           7
 8   2015        1            8     1 NA                      23           6
 9   2015        3            9     1 NA                      20           5
10   2015        3           10     1 NA                      32           9
# ... with 1,990 more rows, and 423 more variables: 正答数_数Ａ <dbl>,
#   正答数_数Ｂ <dbl>, 正答数_理 <dbl>, 正答数_理Ａ <dbl>, 正答数_理Ｂ <dbl>,
#   正答率_国Ａ <dbl>, 正答率_国Ｂ <dbl>, 正答率_数Ａ <dbl>, 正答率_数Ｂ <dbl>,
#   正答率_理 <dbl>, 正答率_理Ａ <dbl>, 正答率_理Ｂ <dbl>, 学力層_国Ａ <dbl>,
#   学力層_国Ｂ <dbl>, 学力層_数Ａ <dbl>, 学力層_数Ｂ <dbl>, 学力層_理科 <dbl>,
#   学力層_理科Ａ <dbl>, 学力層_理科Ｂ <dbl>, 正答数_国Ａ_領域１ <dbl>, …
…
