シェープファイルを読む
…
中を見てみよう：

mie
Simple feature collection with 7480 features and 5 fields
geometry type:  POLYGON
dimension:      XY
bbox:           xmin: 135.8532 ymin: 33.72286 xmax: 136.9901 ymax: 35.25765
epsg (SRID):    NA
proj4string:    +proj=longlat +ellps=GRS80 +no_defs
# A tibble: 7,480 x 6
   N03_001 N03_002 N03_003 N03_004  N03_007                            geometry
   <chr>   <chr>   <chr>   <chr>    <chr>                         <POLYGON [°]>
 1 三重県  NA      NA      津市     24201   ((136.5282 34.71053, 136.5276 34.7…
 2 三重県  NA      NA      津市     24201   ((136.4232 34.84402, 136.4233 34.8…
 3 三重県  NA      NA      四日市市 24202   ((136.6458 34.93301, 136.6458 34.9…
 4 三重県  NA      NA      四日市市 24202   ((136.6466 34.94488, 136.6465 34.9…
 5 三重県  NA      NA      四日市市 24202   ((136.6589 34.95153, 136.6588 34.9…
 6 三重県  NA      NA      四日市市 24202   ((136.6771 34.97827, 136.6763 34.9…
 7 三重県  NA      NA      四日市市 24202   ((136.652 34.98822, 136.6519 34.98…
 8 三重県  NA      NA      四日市市 24202   ((136.6531 34.99381, 136.653 34.99…
 9 三重県  NA      NA      四日市市 24202   ((136.673 34.99794, 136.6728 34.99…
10 三重県  NA      NA      四日市市 24202   ((136.5404 35.06994, 136.5407 35.0…
# ... with 7,470 more rows
…
