DuckDBでSQL
…
まずは pip でインストールします：

pip install duckdb

インポートします：

import duckdb

ここでは duckdb.read_csv() という関数でCSVデータを読んでみます。データはローカルのファイルでもかまいませんが、ここでは Web で公開されている CSV ファイルを URL で指定します。ここでは2022年1月1日現在の住民基本台帳に基づく都道府県別・男女別人口データを扱います（元データはe-Statの住民基本台帳に基づく人口、人口動態及び世帯数調査 / 調査の結果）。読み込んだデータをここでは pop という名前のオブジェクト（duckdb.duckdb.DuckDBPyRelation）に格納します。2行目は単に pop とだけ打ち込んで、データの中身を表示しています：

pop = duckdb.read_csv("https://okumuralab.org/~okumura/stat/data/pop2022.csv")
pop

┌─────────┬──────────┬─────────┬─────────┐
│  番号   │ 都道府県 │   男    │   女    │
│ varchar │ varchar  │  int64  │  int64  │
├─────────┼──────────┼─────────┼─────────┤
│ 01      │ 北海道   │ 2450393 │ 2733294 │
│ 02      │ 青森     │  589143 │  653938 │
│ 03      │ 岩手     │  581809 │  624670 │
│ 04      │ 宮城     │ 1106183 │ 1162172 │
│ 05      │ 秋田     │  452370 │  504466 │
│ 06      │ 山形     │  511409 │  545273 │
│ 07      │ 福島     │  904388 │  936856 │
│ 08      │ 茨城     │ 1449442 │ 1440935 │
│ 09      │ 栃木     │  971696 │  970798 │
│ 10      │ 群馬     │  963793 │  979874 │
│ ·       │  ·       │     ·   │     ·   │
│ ·       │  ·       │     ·   │     ·   │
│ ·       │  ·       │     ·   │     ·   │
│ 38      │ 愛媛     │  637522 │  704017 │
│ 39      │ 高知     │  327834 │  365535 │
│ 40      │ 福岡     │ 2430957 │ 2677550 │
│ 41      │ 佐賀     │  386622 │  425571 │
│ 42      │ 長崎     │  622766 │  697289 │
│ 43      │ 熊本     │  829853 │  917660 │
│ 44      │ 大分     │  538934 │  592206 │
│ 45      │ 宮崎     │  511039 │  567274 │
│ 46      │ 鹿児島   │  759364 │  846055 │
│ 47      │ 沖縄     │  732981 │  752689 │
├─────────┴──────────┴─────────┴─────────┤
│ 47 rows (20 shown)           4 columns │
└────────────────────────────────────────┘
…
